Loading and preprocessing the data
…
The initial data is in a long format with three different variables:

steps <int>: Number of steps taking in a 5-minute interval (missing values are coded as NA)

date <date>: The date on which the measurement was taken in YYYY-MM-DD format. 
The experiment lasted for 61 days, from 2012-10-01 to 2012-11-30.

interval <int>: Identifier for the 5-minute interval in which measurement was taken. 
Per day, there are 288 such intervals.

## A quick look at the data
activity_data

## # A tibble: 17,568 x 3
##    steps date       interval
##    <int> <date>        <int>
##  1    NA 2012-10-01        0
##  2    NA 2012-10-01        5
##  3    NA 2012-10-01       10
##  4    NA 2012-10-01       15
##  5    NA 2012-10-01       20
##  6    NA 2012-10-01       25
##  7    NA 2012-10-01       30
##  8    NA 2012-10-01       35
##  9    NA 2012-10-01       40
## 10    NA 2012-10-01       45
## # ... with 17,558 more rows
…
In this wide format, each row contains all the information relative to a given interval while each column contains the information for a given day. Quantities per day can be calculated down columns, while quantities for a given interval during the whole period of the experiment can be calculated across rows.

## A quick look at the data
activity_data_wide 

## # A tibble: 288 x 62
##    interval `2012-10-01` `2012-10-02` `2012-10-03` `2012-10-04`
##    <chr>           <int>        <int>        <int>        <int>
##  1 0000               NA            0            0           47
##  2 0005               NA            0            0            0
##  3 0010               NA            0            0            0
##  4 0015               NA            0            0            0
##  5 0020               NA            0            0            0
##  6 0025               NA            0            0            0
##  7 0030               NA            0            0            0
##  8 0035               NA            0            0            0
##  9 0040               NA            0            0            0
## 10 0045               NA            0            0            0
## # ... with 278 more rows, and 57 more variables: `2012-10-05` <int>,
## #   `2012-10-06` <int>, `2012-10-07` <int>, `2012-10-08` <int>,
## #   `2012-10-09` <int>, `2012-10-10` <int>, `2012-10-11` <int>,
## #   `2012-10-12` <int>, `2012-10-13` <int>, `2012-10-14` <int>,
## #   `2012-10-15` <int>, `2012-10-16` <int>, `2012-10-17` <int>,
## #   `2012-10-18` <int>, `2012-10-19` <int>, `2012-10-20` <int>,
## #   `2012-10-21` <int>, `2012-10-22` <int>, `2012-10-23` <int>,
## #   `2012-10-24` <int>, `2012-10-25` <int>, `2012-10-26` <int>,
## #   `2012-10-27` <int>, `2012-10-28` <int>, `2012-10-29` <int>,
…
## Long dataframe with value of mean number of steps per interval
activity_mean <- activity_data_wide %>%
    transmute(interval, mean = rowMeans(.[2:62],na.rm = TRUE))

which has 2 variables:

interval (“####”) <char>: The label of interval on which the number of steps was recorded.

mean <int>: The average number of steps for the respective interval over the whole duration of the experiment.

## A quick look at the data
activity_mean

## # A tibble: 288 x 2
##    interval   mean
##    <chr>     <dbl>
##  1 0000     1.72  
##  2 0005     0.340 
##  3 0010     0.132 
##  4 0015     0.151 
##  5 0020     0.0755
##  6 0025     2.09  
##  7 0030     0.528 
##  8 0035     0.868 
##  9 0040     0     
## 10 0045     1.47  
## # ... with 278 more rows
…
date <fct>: A label that indicates whether the number of steps was averaged over weekends or weekdays.

mean <int>: The average number of steps for the respective interval over the weekend or the weekdays.

## Long dataframe with value of mean number of steps per interval
activity_mean2 <- activity_fill2_wide %>%
    gather(key = "date", value = "steps", (2:62)) %>%
    ## Transforming dates in the 'weekend'/'weekday' label
    mutate( date = wday(date) %>% (function(x) ifelse(x %in% c(1,7),"weekend","weekday")) %>% factor) %>% 
    group_by(interval,date) %>%
    summarise(mean = mean(steps))

activity_mean2

## # A tibble: 576 x 3
## # Groups:   interval [?]
##    interval date      mean
##    <chr>    <fct>    <dbl>
##  1 0000     weekday 2.02  
##  2 0000     weekend 0     
##  3 0005     weekday 0.4   
##  4 0005     weekend 0     
##  5 0010     weekday 0.156 
##  6 0010     weekend 0     
##  7 0015     weekday 0.178 
##  8 0015     weekend 0     
##  9 0020     weekday 0.0889
## 10 0020     weekend 0     
## # ... with 566 more rows
…
